MA01
MA02
MA04
MA05
MA06
MA07
MA08
MA09
MA11
MA12
MA14
MA15
MA16
MA17
MA18
MA19
MA20
MA21
MA22
MA23
MA24
MA25
MA26
MA27
MA28
MA29
MA30
MA31
MA32
MA33
MA34
MA35
MA36
MA37
MA38
MA40
MA41
MA42
MA43
MA44
MA45
MA46
MA47
MA48
MA49
MA50
MA51
MA53
MA54
MA55
MA66